Effects of Mental Health on Substance Use
…
#cig30use
#responses with 94, 97, and 98 will be removed
new_df <- subset(new_df, !(cig30use %in% c(94, 97, 98)))

#responses with 91 and 93 will be changed to 0
new_df$cig30use[new_df$cig30use == 91] <- 0
new_df$cig30use[new_df$cig30use == 93] <- 0

cig30use_freq_table <- new_df %>%   
  group_by(cig30use) %>%   
  summarise(frequency = n()) %>%   arrange(desc(frequency))

cig30use_freq_table

# A tibble: 31 × 2
   cig30use  frequency
   <dbl+lbl>     <int>
 1  0            38435
 2 30             3499
 3  1              642
 4  2              375
 5  5              250
 6 20              234
 7  3              230
 8 10              229
 9 15              214
10  4              153
# ℹ 21 more rows
…
#alc30use
#responses with 85, 94, 97, and 98 will be removed
new_df <- subset(new_df, !(alc30use %in% c(85, 94, 97, 98)))

#responses with 91 and 93 will be changed to 0
new_df$alc30use[new_df$alc30use == 91] <- 0
new_df$alc30use[new_df$alc30use == 93] <- 0

alc30use_freq_table <- new_df %>%   
  group_by(alc30use) %>%   
  summarise(frequency = n()) %>%   arrange(desc(frequency))

alc30use_freq_table

# A tibble: 31 × 2
   alc30use  frequency
   <dbl+lbl>     <int>
 1  0            21107
 2  2             3564
 3  1             3436
 4  3             2501
 5  4             2050
 6  5             1866
 7 10             1328
 8 20             1039
 9  6              999
10  8              967
# ℹ 21 more rows
…
#responses with 80, 91, and 93 will be changed to 0
new_df$alcbinge30[new_df$alcbinge30 == 80] <- 0
new_df$alcbinge30[new_df$alcbinge30 == 91] <- 0
new_df$alcbinge30[new_df$alcbinge30 == 93] <- 0

alcbinge30_freq_table <- new_df %>%   
  group_by(alcbinge30) %>%   
  summarise(frequency = n()) %>%   arrange(desc(frequency))

alcbinge30_freq_table

# A tibble: 31 × 2
   alcbinge30 frequency
   <dbl+lbl>      <int>
 1  0             32735
 2  1              3826
 3  2              2418
 4  3              1123
 5  4               896
 6  5               830
 7 10               367
 8  6               276
 9  8               246
10 15               195
# ℹ 21 more rows
#mj30use
#responses with 94, 97, and 98 will be removed
new_df <- subset(new_df, !(mj30use %in% c(94, 97, 98)))

#responses with 91 and 93 will be changed to 0
new_df$mj30use[new_df$mj30use == 91] <- 0
new_df$mj30use[new_df$mj30use == 93] <- 0

mj30use_freq_table <- new_df %>%   
  group_by(mj30use) %>%   
  summarise(frequency = n()) %>%   arrange(desc(frequency))

mj30use_freq_table

# A tibble: 31 × 2
   mj30use   frequency
   <dbl+lbl>     <int>
 1  0            35202
 2 30             2548
 3  1              927
 4  2              653
 5 20              529
 6  3              427
 7 25              415
 8  5              377
 9  4              333
10 15              324
# ℹ 21 more rows
…
0-30

new_df$cig30use %>%
  summary()

   Min. 1st Qu.  Median    Mean 3rd Qu.    Max. 
  0.000   0.000   0.000   2.904   0.000  30.000 

cig30use_freq_table <- new_df %>%   
  group_by(cig30use) %>%   
  summarise(frequency = n()) %>%   arrange(desc(frequency))  

cig30use_freq_table

# A tibble: 31 × 2
   cig30use   frequency
   <labelled>     <int>
 1  0             34679
 2 30              3104
 3  1               509
 4  2               301
 5  5               208
 6 20               194
 7  3               193
 8 10               189
 9 15               182
10  4               128
# ℹ 21 more rows
…
0-30

new_df$alc30use %>%
  summary()

   Min. 1st Qu.  Median    Mean 3rd Qu.    Max. 
  0.000   0.000   1.000   4.135   5.000  30.000 

alc30use_freq_table <- new_df %>%   
  group_by(alc30use) %>%   
  summarise(frequency = n()) %>%   arrange(desc(frequency))  

alc30use_freq_table

# A tibble: 31 × 2
   alc30use   frequency
   <labelled>     <int>
 1  0             18851
 2  2              3305
 3  1              3201
 4  3              2328
 5  4              1910
 6  5              1707
 7 10              1245
 8 20               987
 9  6               946
10  8               902
# ℹ 21 more rows
…
0-30

new_df$alcbinge30 %>%
  summary()

   Min. 1st Qu.  Median    Mean 3rd Qu.    Max. 
  0.000   0.000   0.000   1.115   1.000  30.000 

alcbinge30_freq_table <- new_df %>%   
  group_by(alcbinge30) %>%   
  summarise(frequency = n()) %>%   arrange(desc(frequency)) 

alcbinge30_freq_table

# A tibble: 31 × 2
   alcbinge30 frequency
   <labelled>     <int>
 1  0             29965
 2  1              3547
 3  2              2259
 4  3              1058
 5  4               846
 6  5               766
 7 10               340
 8  6               258
 9  8               229
10 15               181
# ℹ 21 more rows
…
0-30

new_df$mj30use %>%
  summary()

   Min. 1st Qu.  Median    Mean 3rd Qu.    Max. 
  0.000   0.000   0.000   3.283   0.000  30.000 

mj30use_freq_table <- new_df %>%   
  group_by(mj30use) %>%   
  summarise(frequency = n()) %>%   arrange(desc(frequency)) 

mj30use_freq_table

# A tibble: 31 × 2
   mj30use    frequency
   <labelled>     <int>
 1  0             32344
 2 30              2389
 3  1               877
 4  2               622
 5 20               501
 6  3               405
 7 25               395
 8  5               352
 9  4               316
10 15               299
# ℹ 21 more rows
…
